<?xml version="1.0" encoding="utf-8" standalone="no"?>
<!DOCTYPE svg PUBLIC "-//W3C//DTD SVG 1.1//EN"
  "http://www.w3.org/Graphics/SVG/1.1/DTD/svg11.dtd">
<!-- Created with matplotlib (https://matplotlib.org/) -->
<svg height="324pt" version="1.1" viewBox="0 0 432 324" width="432pt" xmlns="http://www.w3.org/2000/svg" xmlns:xlink="http://www.w3.org/1999/xlink">
 <defs>
  <style type="text/css">
*{stroke-linecap:butt;stroke-linejoin:round;}
  </style>
 </defs>
 <g id="figure_1">
  <g id="patch_1">
   <path d="M 0 324 
L 432 324 
L 432 0 
L 0 0 
z
" style="fill:#ffffff;"/>
  </g>
  <g id="axes_1">
   <g id="patch_2">
    <path d="M 63.05 279.2 
L 361.1 279.2 
L 361.1 14.8 
L 63.05 14.8 
z
" style="fill:#ffffff;"/>
   </g>
   <g id="matplotlib.axis_1">
    <g id="xtick_1">
     <g id="line2d_1">
      <defs>
       <path d="M 0 0 
L 0 3.5 
" id="m2f2ecaaec3" style="stroke:#000000;stroke-width:0.8;"/>
      </defs>
      <g>
       <use style="stroke:#000000;stroke-width:0.8;" x="63.05" xlink:href="#m2f2ecaaec3" y="279.2"/>
      </g>
     </g>
     <g id="text_1">
      <!-- −20 -->
      <defs>
       <path d="M 10.59375 35.5 
L 73.1875 35.5 
L 73.1875 27.203125 
L 10.59375 27.203125 
z
" id="DejaVuSans-8722"/>
       <path d="M 19.1875 8.296875 
L 53.609375 8.296875 
L 53.609375 0 
L 7.328125 0 
L 7.328125 8.296875 
Q 12.9375 14.109375 22.625 23.890625 
Q 32.328125 33.6875 34.8125 36.53125 
Q 39.546875 41.84375 41.421875 45.53125 
Q 43.3125 49.21875 43.3125 52.78125 
Q 43.3125 58.59375 39.234375 62.25 
Q 35.15625 65.921875 28.609375 65.921875 
Q 23.96875 65.921875 18.8125 64.3125 
Q 13.671875 62.703125 7.8125 59.421875 
L 7.8125 69.390625 
Q 13.765625 71.78125 18.9375 73 
Q 24.125 74.21875 28.421875 74.21875 
Q 39.75 74.21875 46.484375 68.546875 
Q 53.21875 62.890625 53.21875 53.421875 
Q 53.21875 48.921875 51.53125 44.890625 
Q 49.859375 40.875 45.40625 35.40625 
Q 44.1875 33.984375 37.640625 27.21875 
Q 31.109375 20.453125 19.1875 8.296875 
z
" id="DejaVuSans-50"/>
       <path d="M 31.78125 66.40625 
Q 24.171875 66.40625 20.328125 58.90625 
Q 16.5 51.421875 16.5 36.375 
Q 16.5 21.390625 20.328125 13.890625 
Q 24.171875 6.390625 31.78125 6.390625 
Q 39.453125 6.390625 43.28125 13.890625 
Q 47.125 21.390625 47.125 36.375 
Q 47.125 51.421875 43.28125 58.90625 
Q 39.453125 66.40625 31.78125 66.40625 
z
M 31.78125 74.21875 
Q 44.046875 74.21875 50.515625 64.515625 
Q 56.984375 54.828125 56.984375 36.375 
Q 56.984375 17.96875 50.515625 8.265625 
Q 44.046875 -1.421875 31.78125 -1.421875 
Q 19.53125 -1.421875 13.0625 8.265625 
Q 6.59375 17.96875 6.59375 36.375 
Q 6.59375 54.828125 13.0625 64.515625 
Q 19.53125 74.21875 31.78125 74.21875 
z
" id="DejaVuSans-48"/>
      </defs>
      <g transform="translate(52.497656 293.798437)scale(0.1 -0.1)">
       <use xlink:href="#DejaVuSans-8722"/>
       <use x="83.789062" xlink:href="#DejaVuSans-50"/>
       <use x="147.412109" xlink:href="#DejaVuSans-48"/>
      </g>
     </g>
    </g>
    <g id="xtick_2">
     <g id="line2d_2">
      <g>
       <use style="stroke:#000000;stroke-width:0.8;" x="100.30625" xlink:href="#m2f2ecaaec3" y="279.2"/>
      </g>
     </g>
     <g id="text_2">
      <!-- −15 -->
      <defs>
       <path d="M 12.40625 8.296875 
L 28.515625 8.296875 
L 28.515625 63.921875 
L 10.984375 60.40625 
L 10.984375 69.390625 
L 28.421875 72.90625 
L 38.28125 72.90625 
L 38.28125 8.296875 
L 54.390625 8.296875 
L 54.390625 0 
L 12.40625 0 
z
" id="DejaVuSans-49"/>
       <path d="M 10.796875 72.90625 
L 49.515625 72.90625 
L 49.515625 64.59375 
L 19.828125 64.59375 
L 19.828125 46.734375 
Q 21.96875 47.46875 24.109375 47.828125 
Q 26.265625 48.1875 28.421875 48.1875 
Q 40.625 48.1875 47.75 41.5 
Q 54.890625 34.8125 54.890625 23.390625 
Q 54.890625 11.625 47.5625 5.09375 
Q 40.234375 -1.421875 26.90625 -1.421875 
Q 22.3125 -1.421875 17.546875 -0.640625 
Q 12.796875 0.140625 7.71875 1.703125 
L 7.71875 11.625 
Q 12.109375 9.234375 16.796875 8.0625 
Q 21.484375 6.890625 26.703125 6.890625 
Q 35.15625 6.890625 40.078125 11.328125 
Q 45.015625 15.765625 45.015625 23.390625 
Q 45.015625 31 40.078125 35.4375 
Q 35.15625 39.890625 26.703125 39.890625 
Q 22.75 39.890625 18.8125 39.015625 
Q 14.890625 38.140625 10.796875 36.28125 
z
" id="DejaVuSans-53"/>
      </defs>
      <g transform="translate(89.753906 293.798437)scale(0.1 -0.1)">
       <use xlink:href="#DejaVuSans-8722"/>
       <use x="83.789062" xlink:href="#DejaVuSans-49"/>
       <use x="147.412109" xlink:href="#DejaVuSans-53"/>
      </g>
     </g>
    </g>
    <g id="xtick_3">
     <g id="line2d_3">
      <g>
       <use style="stroke:#000000;stroke-width:0.8;" x="137.5625" xlink:href="#m2f2ecaaec3" y="279.2"/>
      </g>
     </g>
     <g id="text_3">
      <!-- −10 -->
      <g transform="translate(127.010156 293.798437)scale(0.1 -0.1)">
       <use xlink:href="#DejaVuSans-8722"/>
       <use x="83.789062" xlink:href="#DejaVuSans-49"/>
       <use x="147.412109" xlink:href="#DejaVuSans-48"/>
      </g>
     </g>
    </g>
    <g id="xtick_4">
     <g id="line2d_4">
      <g>
       <use style="stroke:#000000;stroke-width:0.8;" x="174.81875" xlink:href="#m2f2ecaaec3" y="279.2"/>
      </g>
     </g>
     <g id="text_4">
      <!-- −5 -->
      <g transform="translate(167.447656 293.798437)scale(0.1 -0.1)">
       <use xlink:href="#DejaVuSans-8722"/>
       <use x="83.789062" xlink:href="#DejaVuSans-53"/>
      </g>
     </g>
    </g>
    <g id="xtick_5">
     <g id="line2d_5">
      <g>
       <use style="stroke:#000000;stroke-width:0.8;" x="212.075" xlink:href="#m2f2ecaaec3" y="279.2"/>
      </g>
     </g>
     <g id="text_5">
      <!-- 0 -->
      <g transform="translate(208.89375 293.798437)scale(0.1 -0.1)">
       <use xlink:href="#DejaVuSans-48"/>
      </g>
     </g>
    </g>
    <g id="xtick_6">
     <g id="line2d_6">
      <g>
       <use style="stroke:#000000;stroke-width:0.8;" x="249.33125" xlink:href="#m2f2ecaaec3" y="279.2"/>
      </g>
     </g>
     <g id="text_6">
      <!-- 5 -->
      <g transform="translate(246.15 293.798437)scale(0.1 -0.1)">
       <use xlink:href="#DejaVuSans-53"/>
      </g>
     </g>
    </g>
    <g id="xtick_7">
     <g id="line2d_7">
      <g>
       <use style="stroke:#000000;stroke-width:0.8;" x="286.5875" xlink:href="#m2f2ecaaec3" y="279.2"/>
      </g>
     </g>
     <g id="text_7">
      <!-- 10 -->
      <g transform="translate(280.225 293.798437)scale(0.1 -0.1)">
       <use xlink:href="#DejaVuSans-49"/>
       <use x="63.623047" xlink:href="#DejaVuSans-48"/>
      </g>
     </g>
    </g>
    <g id="xtick_8">
     <g id="line2d_8">
      <g>
       <use style="stroke:#000000;stroke-width:0.8;" x="323.84375" xlink:href="#m2f2ecaaec3" y="279.2"/>
      </g>
     </g>
     <g id="text_8">
      <!-- 15 -->
      <g transform="translate(317.48125 293.798437)scale(0.1 -0.1)">
       <use xlink:href="#DejaVuSans-49"/>
       <use x="63.623047" xlink:href="#DejaVuSans-53"/>
      </g>
     </g>
    </g>
    <g id="xtick_9">
     <g id="line2d_9">
      <g>
       <use style="stroke:#000000;stroke-width:0.8;" x="361.1" xlink:href="#m2f2ecaaec3" y="279.2"/>
      </g>
     </g>
     <g id="text_9">
      <!-- 20 -->
      <g transform="translate(354.7375 293.798437)scale(0.1 -0.1)">
       <use xlink:href="#DejaVuSans-50"/>
       <use x="63.623047" xlink:href="#DejaVuSans-48"/>
      </g>
     </g>
    </g>
    <g id="text_10">
     <!-- Relative frequency (GHz) -->
     <defs>
      <path d="M 44.390625 34.1875 
Q 47.5625 33.109375 50.5625 29.59375 
Q 53.5625 26.078125 56.59375 19.921875 
L 66.609375 0 
L 56 0 
L 46.6875 18.703125 
Q 43.0625 26.03125 39.671875 28.421875 
Q 36.28125 30.8125 30.421875 30.8125 
L 19.671875 30.8125 
L 19.671875 0 
L 9.8125 0 
L 9.8125 72.90625 
L 32.078125 72.90625 
Q 44.578125 72.90625 50.734375 67.671875 
Q 56.890625 62.453125 56.890625 51.90625 
Q 56.890625 45.015625 53.6875 40.46875 
Q 50.484375 35.9375 44.390625 34.1875 
z
M 19.671875 64.796875 
L 19.671875 38.921875 
L 32.078125 38.921875 
Q 39.203125 38.921875 42.84375 42.21875 
Q 46.484375 45.515625 46.484375 51.90625 
Q 46.484375 58.296875 42.84375 61.546875 
Q 39.203125 64.796875 32.078125 64.796875 
z
" id="DejaVuSans-82"/>
      <path d="M 56.203125 29.59375 
L 56.203125 25.203125 
L 14.890625 25.203125 
Q 15.484375 15.921875 20.484375 11.0625 
Q 25.484375 6.203125 34.421875 6.203125 
Q 39.59375 6.203125 44.453125 7.46875 
Q 49.3125 8.734375 54.109375 11.28125 
L 54.109375 2.78125 
Q 49.265625 0.734375 44.1875 -0.34375 
Q 39.109375 -1.421875 33.890625 -1.421875 
Q 20.796875 -1.421875 13.15625 6.1875 
Q 5.515625 13.8125 5.515625 26.8125 
Q 5.515625 40.234375 12.765625 48.109375 
Q 20.015625 56 32.328125 56 
Q 43.359375 56 49.78125 48.890625 
Q 56.203125 41.796875 56.203125 29.59375 
z
M 47.21875 32.234375 
Q 47.125 39.59375 43.09375 43.984375 
Q 39.0625 48.390625 32.421875 48.390625 
Q 24.90625 48.390625 20.390625 44.140625 
Q 15.875 39.890625 15.1875 32.171875 
z
" id="DejaVuSans-101"/>
      <path d="M 9.421875 75.984375 
L 18.40625 75.984375 
L 18.40625 0 
L 9.421875 0 
z
" id="DejaVuSans-108"/>
      <path d="M 34.28125 27.484375 
Q 23.390625 27.484375 19.1875 25 
Q 14.984375 22.515625 14.984375 16.5 
Q 14.984375 11.71875 18.140625 8.90625 
Q 21.296875 6.109375 26.703125 6.109375 
Q 34.1875 6.109375 38.703125 11.40625 
Q 43.21875 16.703125 43.21875 25.484375 
L 43.21875 27.484375 
z
M 52.203125 31.203125 
L 52.203125 0 
L 43.21875 0 
L 43.21875 8.296875 
Q 40.140625 3.328125 35.546875 0.953125 
Q 30.953125 -1.421875 24.3125 -1.421875 
Q 15.921875 -1.421875 10.953125 3.296875 
Q 6 8.015625 6 15.921875 
Q 6 25.140625 12.171875 29.828125 
Q 18.359375 34.515625 30.609375 34.515625 
L 43.21875 34.515625 
L 43.21875 35.40625 
Q 43.21875 41.609375 39.140625 45 
Q 35.0625 48.390625 27.6875 48.390625 
Q 23 48.390625 18.546875 47.265625 
Q 14.109375 46.140625 10.015625 43.890625 
L 10.015625 52.203125 
Q 14.9375 54.109375 19.578125 55.046875 
Q 24.21875 56 28.609375 56 
Q 40.484375 56 46.34375 49.84375 
Q 52.203125 43.703125 52.203125 31.203125 
z
" id="DejaVuSans-97"/>
      <path d="M 18.3125 70.21875 
L 18.3125 54.6875 
L 36.8125 54.6875 
L 36.8125 47.703125 
L 18.3125 47.703125 
L 18.3125 18.015625 
Q 18.3125 11.328125 20.140625 9.421875 
Q 21.96875 7.515625 27.59375 7.515625 
L 36.8125 7.515625 
L 36.8125 0 
L 27.59375 0 
Q 17.1875 0 13.234375 3.875 
Q 9.28125 7.765625 9.28125 18.015625 
L 9.28125 47.703125 
L 2.6875 47.703125 
L 2.6875 54.6875 
L 9.28125 54.6875 
L 9.28125 70.21875 
z
" id="DejaVuSans-116"/>
      <path d="M 9.421875 54.6875 
L 18.40625 54.6875 
L 18.40625 0 
L 9.421875 0 
z
M 9.421875 75.984375 
L 18.40625 75.984375 
L 18.40625 64.59375 
L 9.421875 64.59375 
z
" id="DejaVuSans-105"/>
      <path d="M 2.984375 54.6875 
L 12.5 54.6875 
L 29.59375 8.796875 
L 46.6875 54.6875 
L 56.203125 54.6875 
L 35.6875 0 
L 23.484375 0 
z
" id="DejaVuSans-118"/>
      <path id="DejaVuSans-32"/>
      <path d="M 37.109375 75.984375 
L 37.109375 68.5 
L 28.515625 68.5 
Q 23.6875 68.5 21.796875 66.546875 
Q 19.921875 64.59375 19.921875 59.515625 
L 19.921875 54.6875 
L 34.71875 54.6875 
L 34.71875 47.703125 
L 19.921875 47.703125 
L 19.921875 0 
L 10.890625 0 
L 10.890625 47.703125 
L 2.296875 47.703125 
L 2.296875 54.6875 
L 10.890625 54.6875 
L 10.890625 58.5 
Q 10.890625 67.625 15.140625 71.796875 
Q 19.390625 75.984375 28.609375 75.984375 
z
" id="DejaVuSans-102"/>
      <path d="M 41.109375 46.296875 
Q 39.59375 47.171875 37.8125 47.578125 
Q 36.03125 48 33.890625 48 
Q 26.265625 48 22.1875 43.046875 
Q 18.109375 38.09375 18.109375 28.8125 
L 18.109375 0 
L 9.078125 0 
L 9.078125 54.6875 
L 18.109375 54.6875 
L 18.109375 46.1875 
Q 20.953125 51.171875 25.484375 53.578125 
Q 30.03125 56 36.53125 56 
Q 37.453125 56 38.578125 55.875 
Q 39.703125 55.765625 41.0625 55.515625 
z
" id="DejaVuSans-114"/>
      <path d="M 14.796875 27.296875 
Q 14.796875 17.390625 18.875 11.75 
Q 22.953125 6.109375 30.078125 6.109375 
Q 37.203125 6.109375 41.296875 11.75 
Q 45.40625 17.390625 45.40625 27.296875 
Q 45.40625 37.203125 41.296875 42.84375 
Q 37.203125 48.484375 30.078125 48.484375 
Q 22.953125 48.484375 18.875 42.84375 
Q 14.796875 37.203125 14.796875 27.296875 
z
M 45.40625 8.203125 
Q 42.578125 3.328125 38.25 0.953125 
Q 33.9375 -1.421875 27.875 -1.421875 
Q 17.96875 -1.421875 11.734375 6.484375 
Q 5.515625 14.40625 5.515625 27.296875 
Q 5.515625 40.1875 11.734375 48.09375 
Q 17.96875 56 27.875 56 
Q 33.9375 56 38.25 53.625 
Q 42.578125 51.265625 45.40625 46.390625 
L 45.40625 54.6875 
L 54.390625 54.6875 
L 54.390625 -20.796875 
L 45.40625 -20.796875 
z
" id="DejaVuSans-113"/>
      <path d="M 8.5 21.578125 
L 8.5 54.6875 
L 17.484375 54.6875 
L 17.484375 21.921875 
Q 17.484375 14.15625 20.5 10.265625 
Q 23.53125 6.390625 29.59375 6.390625 
Q 36.859375 6.390625 41.078125 11.03125 
Q 45.3125 15.671875 45.3125 23.6875 
L 45.3125 54.6875 
L 54.296875 54.6875 
L 54.296875 0 
L 45.3125 0 
L 45.3125 8.40625 
Q 42.046875 3.421875 37.71875 1 
Q 33.40625 -1.421875 27.6875 -1.421875 
Q 18.265625 -1.421875 13.375 4.4375 
Q 8.5 10.296875 8.5 21.578125 
z
M 31.109375 56 
z
" id="DejaVuSans-117"/>
      <path d="M 54.890625 33.015625 
L 54.890625 0 
L 45.90625 0 
L 45.90625 32.71875 
Q 45.90625 40.484375 42.875 44.328125 
Q 39.84375 48.1875 33.796875 48.1875 
Q 26.515625 48.1875 22.3125 43.546875 
Q 18.109375 38.921875 18.109375 30.90625 
L 18.109375 0 
L 9.078125 0 
L 9.078125 54.6875 
L 18.109375 54.6875 
L 18.109375 46.1875 
Q 21.34375 51.125 25.703125 53.5625 
Q 30.078125 56 35.796875 56 
Q 45.21875 56 50.046875 50.171875 
Q 54.890625 44.34375 54.890625 33.015625 
z
" id="DejaVuSans-110"/>
      <path d="M 48.78125 52.59375 
L 48.78125 44.1875 
Q 44.96875 46.296875 41.140625 47.34375 
Q 37.3125 48.390625 33.40625 48.390625 
Q 24.65625 48.390625 19.8125 42.84375 
Q 14.984375 37.3125 14.984375 27.296875 
Q 14.984375 17.28125 19.8125 11.734375 
Q 24.65625 6.203125 33.40625 6.203125 
Q 37.3125 6.203125 41.140625 7.25 
Q 44.96875 8.296875 48.78125 10.40625 
L 48.78125 2.09375 
Q 45.015625 0.34375 40.984375 -0.53125 
Q 36.96875 -1.421875 32.421875 -1.421875 
Q 20.0625 -1.421875 12.78125 6.34375 
Q 5.515625 14.109375 5.515625 27.296875 
Q 5.515625 40.671875 12.859375 48.328125 
Q 20.21875 56 33.015625 56 
Q 37.15625 56 41.109375 55.140625 
Q 45.0625 54.296875 48.78125 52.59375 
z
" id="DejaVuSans-99"/>
      <path d="M 32.171875 -5.078125 
Q 28.375 -14.84375 24.75 -17.8125 
Q 21.140625 -20.796875 15.09375 -20.796875 
L 7.90625 -20.796875 
L 7.90625 -13.28125 
L 13.1875 -13.28125 
Q 16.890625 -13.28125 18.9375 -11.515625 
Q 21 -9.765625 23.484375 -3.21875 
L 25.09375 0.875 
L 2.984375 54.6875 
L 12.5 54.6875 
L 29.59375 11.921875 
L 46.6875 54.6875 
L 56.203125 54.6875 
z
" id="DejaVuSans-121"/>
      <path d="M 31 75.875 
Q 24.46875 64.65625 21.28125 53.65625 
Q 18.109375 42.671875 18.109375 31.390625 
Q 18.109375 20.125 21.3125 9.0625 
Q 24.515625 -2 31 -13.1875 
L 23.1875 -13.1875 
Q 15.875 -1.703125 12.234375 9.375 
Q 8.59375 20.453125 8.59375 31.390625 
Q 8.59375 42.28125 12.203125 53.3125 
Q 15.828125 64.359375 23.1875 75.875 
z
" id="DejaVuSans-40"/>
      <path d="M 59.515625 10.40625 
L 59.515625 29.984375 
L 43.40625 29.984375 
L 43.40625 38.09375 
L 69.28125 38.09375 
L 69.28125 6.78125 
Q 63.578125 2.734375 56.6875 0.65625 
Q 49.8125 -1.421875 42 -1.421875 
Q 24.90625 -1.421875 15.25 8.5625 
Q 5.609375 18.5625 5.609375 36.375 
Q 5.609375 54.25 15.25 64.234375 
Q 24.90625 74.21875 42 74.21875 
Q 49.125 74.21875 55.546875 72.453125 
Q 61.96875 70.703125 67.390625 67.28125 
L 67.390625 56.78125 
Q 61.921875 61.421875 55.765625 63.765625 
Q 49.609375 66.109375 42.828125 66.109375 
Q 29.4375 66.109375 22.71875 58.640625 
Q 16.015625 51.171875 16.015625 36.375 
Q 16.015625 21.625 22.71875 14.15625 
Q 29.4375 6.6875 42.828125 6.6875 
Q 48.046875 6.6875 52.140625 7.59375 
Q 56.25 8.5 59.515625 10.40625 
z
" id="DejaVuSans-71"/>
      <path d="M 9.8125 72.90625 
L 19.671875 72.90625 
L 19.671875 43.015625 
L 55.515625 43.015625 
L 55.515625 72.90625 
L 65.375 72.90625 
L 65.375 0 
L 55.515625 0 
L 55.515625 34.71875 
L 19.671875 34.71875 
L 19.671875 0 
L 9.8125 0 
z
" id="DejaVuSans-72"/>
      <path d="M 5.515625 54.6875 
L 48.1875 54.6875 
L 48.1875 46.484375 
L 14.40625 7.171875 
L 48.1875 7.171875 
L 48.1875 0 
L 4.296875 0 
L 4.296875 8.203125 
L 38.09375 47.515625 
L 5.515625 47.515625 
z
" id="DejaVuSans-122"/>
      <path d="M 8.015625 75.875 
L 15.828125 75.875 
Q 23.140625 64.359375 26.78125 53.3125 
Q 30.421875 42.28125 30.421875 31.390625 
Q 30.421875 20.453125 26.78125 9.375 
Q 23.140625 -1.703125 15.828125 -13.1875 
L 8.015625 -13.1875 
Q 14.5 -2 17.703125 9.0625 
Q 20.90625 20.125 20.90625 31.390625 
Q 20.90625 42.671875 17.703125 53.65625 
Q 14.5 64.65625 8.015625 75.875 
z
" id="DejaVuSans-41"/>
     </defs>
     <g transform="translate(136.580938 308.99625)scale(0.12 -0.12)">
      <use xlink:href="#DejaVuSans-82"/>
      <use x="69.419922" xlink:href="#DejaVuSans-101"/>
      <use x="130.943359" xlink:href="#DejaVuSans-108"/>
      <use x="158.726562" xlink:href="#DejaVuSans-97"/>
      <use x="220.005859" xlink:href="#DejaVuSans-116"/>
      <use x="259.214844" xlink:href="#DejaVuSans-105"/>
      <use x="286.998047" xlink:href="#DejaVuSans-118"/>
      <use x="346.177734" xlink:href="#DejaVuSans-101"/>
      <use x="407.701172" xlink:href="#DejaVuSans-32"/>
      <use x="439.488281" xlink:href="#DejaVuSans-102"/>
      <use x="474.693359" xlink:href="#DejaVuSans-114"/>
      <use x="515.775391" xlink:href="#DejaVuSans-101"/>
      <use x="577.298828" xlink:href="#DejaVuSans-113"/>
      <use x="640.775391" xlink:href="#DejaVuSans-117"/>
      <use x="704.154297" xlink:href="#DejaVuSans-101"/>
      <use x="765.677734" xlink:href="#DejaVuSans-110"/>
      <use x="829.056641" xlink:href="#DejaVuSans-99"/>
      <use x="884.037109" xlink:href="#DejaVuSans-121"/>
      <use x="943.216797" xlink:href="#DejaVuSans-32"/>
      <use x="975.003906" xlink:href="#DejaVuSans-40"/>
      <use x="1014.017578" xlink:href="#DejaVuSans-71"/>
      <use x="1091.507812" xlink:href="#DejaVuSans-72"/>
      <use x="1166.703125" xlink:href="#DejaVuSans-122"/>
      <use x="1219.193359" xlink:href="#DejaVuSans-41"/>
     </g>
    </g>
   </g>
   <g id="matplotlib.axis_2">
    <g id="ytick_1">
     <g id="line2d_10">
      <defs>
       <path d="M 0 0 
L -3.5 0 
" id="mc391a02583" style="stroke:#000000;stroke-width:0.8;"/>
      </defs>
      <g>
       <use style="stroke:#000000;stroke-width:0.8;" x="63.05" xlink:href="#mc391a02583" y="279.2"/>
      </g>
     </g>
     <g id="text_11">
      <!-- 0.00 -->
      <defs>
       <path d="M 10.6875 12.40625 
L 21 12.40625 
L 21 0 
L 10.6875 0 
z
" id="DejaVuSans-46"/>
      </defs>
      <g transform="translate(33.784375 282.999219)scale(0.1 -0.1)">
       <use xlink:href="#DejaVuSans-48"/>
       <use x="63.623047" xlink:href="#DejaVuSans-46"/>
       <use x="95.410156" xlink:href="#DejaVuSans-48"/>
       <use x="159.033203" xlink:href="#DejaVuSans-48"/>
      </g>
     </g>
    </g>
    <g id="ytick_2">
     <g id="line2d_11">
      <g>
       <use style="stroke:#000000;stroke-width:0.8;" x="63.05" xlink:href="#mc391a02583" y="213.1"/>
      </g>
     </g>
     <g id="text_12">
      <!-- 0.05 -->
      <g transform="translate(33.784375 216.899219)scale(0.1 -0.1)">
       <use xlink:href="#DejaVuSans-48"/>
       <use x="63.623047" xlink:href="#DejaVuSans-46"/>
       <use x="95.410156" xlink:href="#DejaVuSans-48"/>
       <use x="159.033203" xlink:href="#DejaVuSans-53"/>
      </g>
     </g>
    </g>
    <g id="ytick_3">
     <g id="line2d_12">
      <g>
       <use style="stroke:#000000;stroke-width:0.8;" x="63.05" xlink:href="#mc391a02583" y="147"/>
      </g>
     </g>
     <g id="text_13">
      <!-- 0.10 -->
      <g transform="translate(33.784375 150.799219)scale(0.1 -0.1)">
       <use xlink:href="#DejaVuSans-48"/>
       <use x="63.623047" xlink:href="#DejaVuSans-46"/>
       <use x="95.410156" xlink:href="#DejaVuSans-49"/>
       <use x="159.033203" xlink:href="#DejaVuSans-48"/>
      </g>
     </g>
    </g>
    <g id="ytick_4">
     <g id="line2d_13">
      <g>
       <use style="stroke:#000000;stroke-width:0.8;" x="63.05" xlink:href="#mc391a02583" y="80.9"/>
      </g>
     </g>
     <g id="text_14">
      <!-- 0.15 -->
      <g transform="translate(33.784375 84.699219)scale(0.1 -0.1)">
       <use xlink:href="#DejaVuSans-48"/>
       <use x="63.623047" xlink:href="#DejaVuSans-46"/>
       <use x="95.410156" xlink:href="#DejaVuSans-49"/>
       <use x="159.033203" xlink:href="#DejaVuSans-53"/>
      </g>
     </g>
    </g>
    <g id="ytick_5">
     <g id="line2d_14">
      <g>
       <use style="stroke:#000000;stroke-width:0.8;" x="63.05" xlink:href="#mc391a02583" y="14.8"/>
      </g>
     </g>
     <g id="text_15">
      <!-- 0.20 -->
      <g transform="translate(33.784375 18.599219)scale(0.1 -0.1)">
       <use xlink:href="#DejaVuSans-48"/>
       <use x="63.623047" xlink:href="#DejaVuSans-46"/>
       <use x="95.410156" xlink:href="#DejaVuSans-50"/>
       <use x="159.033203" xlink:href="#DejaVuSans-48"/>
      </g>
     </g>
    </g>
    <g id="text_16">
     <!-- Real($\hat{n}$)-1.45 / Imag($\hat{n}$) -->
     <defs>
      <path d="M -28.609375 79.984375 
L -21.390625 79.984375 
L -9.421875 61.625 
L -16.21875 61.625 
L -25 73.578125 
L -33.796875 61.625 
L -40.578125 61.625 
z
M -25 56 
z
" id="DejaVuSans-770"/>
      <path d="M 55.71875 33.015625 
L 49.3125 0 
L 40.28125 0 
L 46.6875 32.671875 
Q 47.125 34.96875 47.359375 36.71875 
Q 47.609375 38.484375 47.609375 39.5 
Q 47.609375 43.609375 45.015625 45.890625 
Q 42.4375 48.1875 37.796875 48.1875 
Q 30.5625 48.1875 25.34375 43.375 
Q 20.125 38.578125 18.5 30.328125 
L 12.5 0 
L 3.515625 0 
L 14.109375 54.6875 
L 23.09375 54.6875 
L 21.296875 46.09375 
Q 25.046875 50.828125 30.3125 53.40625 
Q 35.59375 56 41.40625 56 
Q 48.640625 56 52.609375 52.09375 
Q 56.59375 48.1875 56.59375 41.109375 
Q 56.59375 39.359375 56.375 37.359375 
Q 56.15625 35.359375 55.71875 33.015625 
z
" id="DejaVuSans-Oblique-110"/>
      <path d="M 4.890625 31.390625 
L 31.203125 31.390625 
L 31.203125 23.390625 
L 4.890625 23.390625 
z
" id="DejaVuSans-45"/>
      <path d="M 37.796875 64.3125 
L 12.890625 25.390625 
L 37.796875 25.390625 
z
M 35.203125 72.90625 
L 47.609375 72.90625 
L 47.609375 25.390625 
L 58.015625 25.390625 
L 58.015625 17.1875 
L 47.609375 17.1875 
L 47.609375 0 
L 37.796875 0 
L 37.796875 17.1875 
L 4.890625 17.1875 
L 4.890625 26.703125 
z
" id="DejaVuSans-52"/>
      <path d="M 25.390625 72.90625 
L 33.6875 72.90625 
L 8.296875 -9.28125 
L 0 -9.28125 
z
" id="DejaVuSans-47"/>
      <path d="M 9.8125 72.90625 
L 19.671875 72.90625 
L 19.671875 0 
L 9.8125 0 
z
" id="DejaVuSans-73"/>
      <path d="M 52 44.1875 
Q 55.375 50.25 60.0625 53.125 
Q 64.75 56 71.09375 56 
Q 79.640625 56 84.28125 50.015625 
Q 88.921875 44.046875 88.921875 33.015625 
L 88.921875 0 
L 79.890625 0 
L 79.890625 32.71875 
Q 79.890625 40.578125 77.09375 44.375 
Q 74.3125 48.1875 68.609375 48.1875 
Q 61.625 48.1875 57.5625 43.546875 
Q 53.515625 38.921875 53.515625 30.90625 
L 53.515625 0 
L 44.484375 0 
L 44.484375 32.71875 
Q 44.484375 40.625 41.703125 44.40625 
Q 38.921875 48.1875 33.109375 48.1875 
Q 26.21875 48.1875 22.15625 43.53125 
Q 18.109375 38.875 18.109375 30.90625 
L 18.109375 0 
L 9.078125 0 
L 9.078125 54.6875 
L 18.109375 54.6875 
L 18.109375 46.1875 
Q 21.1875 51.21875 25.484375 53.609375 
Q 29.78125 56 35.6875 56 
Q 41.65625 56 45.828125 52.96875 
Q 50 49.953125 52 44.1875 
z
" id="DejaVuSans-109"/>
      <path d="M 45.40625 27.984375 
Q 45.40625 37.75 41.375 43.109375 
Q 37.359375 48.484375 30.078125 48.484375 
Q 22.859375 48.484375 18.828125 43.109375 
Q 14.796875 37.75 14.796875 27.984375 
Q 14.796875 18.265625 18.828125 12.890625 
Q 22.859375 7.515625 30.078125 7.515625 
Q 37.359375 7.515625 41.375 12.890625 
Q 45.40625 18.265625 45.40625 27.984375 
z
M 54.390625 6.78125 
Q 54.390625 -7.171875 48.1875 -13.984375 
Q 42 -20.796875 29.203125 -20.796875 
Q 24.46875 -20.796875 20.265625 -20.09375 
Q 16.0625 -19.390625 12.109375 -17.921875 
L 12.109375 -9.1875 
Q 16.0625 -11.328125 19.921875 -12.34375 
Q 23.78125 -13.375 27.78125 -13.375 
Q 36.625 -13.375 41.015625 -8.765625 
Q 45.40625 -4.15625 45.40625 5.171875 
L 45.40625 9.625 
Q 42.625 4.78125 38.28125 2.390625 
Q 33.9375 0 27.875 0 
Q 17.828125 0 11.671875 7.65625 
Q 5.515625 15.328125 5.515625 27.984375 
Q 5.515625 40.671875 11.671875 48.328125 
Q 17.828125 56 27.875 56 
Q 33.9375 56 38.28125 53.609375 
Q 42.625 51.21875 45.40625 46.390625 
L 45.40625 54.6875 
L 54.390625 54.6875 
z
" id="DejaVuSans-103"/>
     </defs>
     <g transform="translate(27.264375 213.66)rotate(-90)scale(0.12 -0.12)">
      <use transform="translate(0 0.515625)" xlink:href="#DejaVuSans-82"/>
      <use transform="translate(69.482422 0.515625)" xlink:href="#DejaVuSans-101"/>
      <use transform="translate(131.005859 0.515625)" xlink:href="#DejaVuSans-97"/>
      <use transform="translate(192.285156 0.515625)" xlink:href="#DejaVuSans-108"/>
      <use transform="translate(220.068359 0.515625)" xlink:href="#DejaVuSans-40"/>
      <use transform="translate(323.504883 13.015625)" xlink:href="#DejaVuSans-770"/>
      <use transform="translate(259.082031 0.515625)" xlink:href="#DejaVuSans-Oblique-110"/>
      <use transform="translate(322.460938 0.515625)" xlink:href="#DejaVuSans-41"/>
      <use transform="translate(361.474609 0.515625)" xlink:href="#DejaVuSans-45"/>
      <use transform="translate(397.558594 0.515625)" xlink:href="#DejaVuSans-49"/>
      <use transform="translate(461.181641 0.515625)" xlink:href="#DejaVuSans-46"/>
      <use transform="translate(492.96875 0.515625)" xlink:href="#DejaVuSans-52"/>
      <use transform="translate(556.591797 0.515625)" xlink:href="#DejaVuSans-53"/>
      <use transform="translate(620.214844 0.515625)" xlink:href="#DejaVuSans-32"/>
      <use transform="translate(652.001953 0.515625)" xlink:href="#DejaVuSans-47"/>
      <use transform="translate(685.693359 0.515625)" xlink:href="#DejaVuSans-32"/>
      <use transform="translate(717.480469 0.515625)" xlink:href="#DejaVuSans-73"/>
      <use transform="translate(746.925781 0.515625)" xlink:href="#DejaVuSans-109"/>
      <use transform="translate(844.337891 0.515625)" xlink:href="#DejaVuSans-97"/>
      <use transform="translate(905.617188 0.515625)" xlink:href="#DejaVuSans-103"/>
      <use transform="translate(969.09375 0.515625)" xlink:href="#DejaVuSans-40"/>
      <use transform="translate(1072.530273 13.015625)" xlink:href="#DejaVuSans-770"/>
      <use transform="translate(1008.107422 0.515625)" xlink:href="#DejaVuSans-Oblique-110"/>
      <use transform="translate(1071.486328 0.515625)" xlink:href="#DejaVuSans-41"/>
     </g>
    </g>
   </g>
   <g id="line2d_15">
    <path clip-path="url(#p63adc4a046)" d="M 62.304875 110.321957 
L 77.9525 109.191716 
L 89.8745 108.224981 
L 91.36475 108.471839 
L 92.109875 108.889018 
L 92.855 109.129639 
L 93.600125 109.120737 
L 94.34525 108.7016 
L 95.090375 108.560885 
L 96.580625 107.690652 
L 98.816 108.21416 
L 100.30625 108.206389 
L 101.051375 107.785748 
L 102.541625 107.727099 
L 103.28675 107.956549 
L 104.031875 103.92174 
L 104.777 103.7959 
L 108.502625 103.837663 
L 109.24775 104.749779 
L 109.992875 105.453872 
L 110.738 105.685141 
L 112.22825 107.192346 
L 112.973375 106.983436 
L 113.7185 107.461103 
L 114.463625 107.233322 
L 115.953875 105.391476 
L 116.699 104.772496 
L 117.444125 103.798608 
L 118.934375 103.730941 
L 119.6795 103.10337 
L 120.424625 101.861366 
L 121.914875 100.39297 
L 122.66 100.616664 
L 124.15025 101.709411 
L 124.895375 102.60907 
L 126.385625 103.706634 
L 127.875875 103.548537 
L 129.366125 102.636648 
L 130.11125 101.642954 
L 130.856375 100.385085 
L 131.6015 99.561524 
L 132.346625 99.572232 
L 133.09175 99.439013 
L 139.797875 99.452188 
L 141.288125 98.953645 
L 142.03325 97.877487 
L 142.778375 96.300071 
L 143.5235 96.182405 
L 144.268625 95.636858 
L 145.01375 96.548542 
L 145.758875 96.83642 
L 146.504 96.649291 
L 147.249125 97.057657 
L 147.99425 95.84735 
L 148.739375 95.23073 
L 150.229625 95.106394 
L 150.97475 94.903935 
L 153.95525 95.11111 
L 154.700375 95.100474 
L 155.4455 93.912691 
L 156.93575 91.210168 
L 157.680875 90.95265 
L 158.426 91.242767 
L 159.171125 91.251851 
L 159.91625 90.770662 
L 161.4065 90.783565 
L 162.89675 90.441026 
L 163.641875 89.955441 
L 164.387 90.095438 
L 165.132125 89.128118 
L 165.87725 87.588797 
L 166.622375 86.848311 
L 167.3675 86.663277 
L 168.112625 87.022267 
L 168.85775 86.541542 
L 170.348 86.485202 
L 171.093125 86.208634 
L 171.83825 85.717503 
L 172.583375 84.403909 
L 174.073625 82.766617 
L 174.81875 82.236103 
L 177.054125 81.982874 
L 177.79925 81.045305 
L 178.544375 79.499931 
L 179.2895 78.815129 
L 180.034625 77.95127 
L 180.77975 77.897312 
L 181.524875 77.488551 
L 182.27 76.210641 
L 183.015125 74.536274 
L 183.76025 73.661339 
L 184.505375 73.403768 
L 185.2505 71.97889 
L 185.995625 69.713284 
L 186.74075 69.262682 
L 187.485875 67.947577 
L 188.231 65.59241 
L 188.976125 65.096655 
L 189.72125 62.947585 
L 191.2115 59.730097 
L 191.956625 57.242947 
L 192.70175 56.304845 
L 193.446875 53.5202 
L 194.192 52.086646 
L 200.153 29.04743 
L 200.898125 27.374614 
L 201.64325 26.094594 
L 202.388375 24.342034 
L 203.1335 23.168956 
L 204.62375 22.437407 
L 205.368875 23.419112 
L 206.114 25.685292 
L 206.859125 28.548905 
L 207.60425 32.550131 
L 208.349375 37.774644 
L 209.839625 52.528596 
L 210.58475 62.520977 
L 212.075 80.650628 
L 212.820125 90.39016 
L 214.310375 118.161953 
L 215.0555 134.749433 
L 215.800625 147.277786 
L 216.54575 162.893605 
L 217.290875 175.783149 
L 218.036 191.876334 
L 219.52625 214.154819 
L 222.50675 249.492002 
L 223.251875 253.639363 
L 223.997 256.707635 
L 224.742125 258.368383 
L 226.232375 255.0065 
L 226.9775 250.506559 
L 227.722625 247.464175 
L 229.958 232.875449 
L 232.193375 219.636289 
L 235.173875 201.140927 
L 238.8995 185.448277 
L 239.644625 184.4734 
L 240.38975 181.755933 
L 241.134875 180.114206 
L 241.88 179.382731 
L 242.625125 177.263351 
L 243.37025 175.608589 
L 244.115375 175.102638 
L 244.8605 173.044631 
L 245.605625 171.341957 
L 246.35075 170.90946 
L 247.095875 170.329701 
L 247.841 168.008197 
L 248.586125 166.69152 
L 249.33125 166.379134 
L 250.8215 166.296229 
L 253.056875 162.583373 
L 253.802 161.91372 
L 255.29225 161.85131 
L 257.527625 161.761146 
L 258.27275 161.67484 
L 259.017875 160.872068 
L 259.763 159.373299 
L 260.508125 158.135048 
L 261.25325 157.571588 
L 261.998375 157.289431 
L 263.488625 157.283846 
L 264.23375 157.130954 
L 266.469125 153.863189 
L 267.21425 153.688704 
L 267.959375 152.986873 
L 270.939875 152.779854 
L 272.430125 152.771139 
L 273.17525 152.194886 
L 273.920375 150.46875 
L 274.6655 151.10307 
L 275.410625 151.083502 
L 276.15575 152.004506 
L 276.900875 152.094817 
L 277.646 151.313998 
L 278.391125 151.173271 
L 279.13625 151.338073 
L 279.881375 151.661133 
L 280.6265 151.615803 
L 281.371625 150.851422 
L 282.11675 150.293227 
L 282.861875 149.021214 
L 283.607 148.530506 
L 284.352125 148.249671 
L 289.568 148.244579 
L 290.313125 148.027187 
L 291.05825 147.670314 
L 291.803375 146.541853 
L 292.5485 146.106678 
L 293.293625 146.83251 
L 294.03875 146.763445 
L 294.783875 147.815995 
L 295.529 148.024112 
L 296.274125 147.735241 
L 297.01925 148.150892 
L 298.5095 145.210652 
L 299.254625 143.946184 
L 299.99975 143.737176 
L 302.98025 143.817092 
L 304.4705 144.171299 
L 305.215625 144.978578 
L 307.451 143.875838 
L 308.196125 143.733983 
L 308.94125 143.732064 
L 309.686375 143.587966 
L 310.4315 142.729956 
L 311.176625 141.470137 
L 311.92175 140.626504 
L 312.666875 140.252319 
L 313.412 140.004705 
L 314.157125 140.749651 
L 314.90225 141.157164 
L 315.647375 142.128706 
L 317.137625 143.388434 
L 317.88275 143.738709 
L 320.118125 143.583485 
L 320.86325 142.874002 
L 321.608375 141.906402 
L 322.3535 140.016952 
L 323.098625 139.24463 
L 326.079125 139.178409 
L 328.3145 138.153805 
L 329.059625 138.973137 
L 329.80475 138.832464 
L 330.549875 139.183805 
L 332.040125 139.253363 
L 340.2365 139.171911 
L 340.981625 138.291039 
L 341.72675 136.581186 
L 352.903625 135.238895 
L 361.1 134.387156 
L 361.1 134.387156 
" style="fill:none;stroke:#ff0000;stroke-dasharray:5.55,2.4;stroke-dashoffset:0;stroke-width:1.5;"/>
   </g>
   <g id="line2d_16">
    <path clip-path="url(#p63adc4a046)" d="M 89.129375 108.223139 
L 90.619625 108.296353 
L 91.36475 108.471839 
L 92.109875 108.889018 
L 92.855 109.129639 
L 93.600125 109.120737 
L 94.34525 108.7016 
L 95.090375 108.560885 
L 96.580625 107.690652 
L 98.816 108.21416 
L 100.30625 108.206389 
L 101.051375 107.785748 
L 102.541625 107.727099 
L 103.28675 107.956549 
L 104.031875 103.92174 
L 104.777 103.7959 
L 108.502625 103.837663 
L 109.24775 104.749779 
L 109.992875 105.453872 
L 110.738 105.685141 
L 112.22825 107.192346 
L 112.973375 106.983436 
L 113.7185 107.461103 
L 114.463625 107.233322 
L 115.953875 105.391476 
L 116.699 104.772496 
L 117.444125 103.798608 
L 118.934375 103.730941 
L 119.6795 103.10337 
L 120.424625 101.861366 
L 121.914875 100.39297 
L 122.66 100.616664 
L 124.15025 101.709411 
L 124.895375 102.60907 
L 126.385625 103.706634 
L 127.875875 103.548537 
L 129.366125 102.636648 
L 130.11125 101.642954 
L 130.856375 100.385085 
L 131.6015 99.561524 
L 132.346625 99.572232 
L 133.09175 99.439013 
L 139.797875 99.452188 
L 141.288125 98.953645 
L 142.03325 97.877487 
L 142.778375 96.300071 
L 143.5235 96.182405 
L 144.268625 95.636858 
L 145.01375 96.548542 
L 145.758875 96.83642 
L 146.504 96.649291 
L 147.249125 97.057657 
L 147.99425 95.84735 
L 148.739375 95.23073 
L 150.229625 95.106394 
L 150.97475 94.903935 
L 153.95525 95.11111 
L 154.700375 95.100474 
L 155.4455 93.912691 
L 156.93575 91.210168 
L 157.680875 90.95265 
L 158.426 91.242767 
L 159.171125 91.251851 
L 159.91625 90.770662 
L 161.4065 90.783565 
L 162.89675 90.441026 
L 163.641875 89.955441 
L 164.387 90.095438 
L 165.132125 89.128118 
L 165.87725 87.588797 
L 166.622375 86.848311 
L 167.3675 86.663277 
L 168.112625 87.022267 
L 168.85775 86.541542 
L 170.348 86.485202 
L 171.093125 86.208634 
L 171.83825 85.717503 
L 172.583375 84.403909 
L 174.073625 82.766617 
L 174.81875 82.236103 
L 177.054125 81.982874 
L 177.79925 81.045305 
L 178.544375 79.499931 
L 179.2895 78.815129 
L 180.034625 77.95127 
L 180.77975 77.897312 
L 181.524875 77.488551 
L 182.27 76.210641 
L 183.015125 74.536274 
L 183.76025 73.661339 
L 184.505375 73.403768 
L 185.2505 71.97889 
L 185.995625 69.713284 
L 186.74075 69.262682 
L 187.485875 67.947577 
L 188.231 65.59241 
L 188.976125 65.096655 
L 189.72125 62.947585 
L 191.2115 59.730097 
L 191.956625 57.242947 
L 192.70175 56.304845 
L 193.446875 53.5202 
L 194.192 52.086646 
L 200.153 29.04743 
L 200.898125 27.374614 
L 201.64325 26.094594 
L 202.388375 24.342034 
L 203.1335 23.168956 
L 204.62375 22.437407 
L 205.368875 23.419112 
L 206.114 25.685292 
L 206.859125 28.548905 
L 207.60425 32.550131 
L 208.349375 37.774644 
L 209.839625 52.528596 
L 210.58475 62.520977 
L 212.075 80.650628 
L 212.820125 90.39016 
L 214.310375 118.161953 
L 215.0555 134.749433 
L 215.800625 147.277786 
L 216.54575 162.893605 
L 217.290875 175.783149 
L 218.036 191.876334 
L 219.52625 214.154819 
L 222.50675 249.492002 
L 223.251875 253.639363 
L 223.997 256.707635 
L 224.742125 258.368383 
L 226.232375 255.0065 
L 226.9775 250.506559 
L 227.722625 247.464175 
L 229.958 232.875449 
L 232.193375 219.636289 
L 235.173875 201.140927 
L 238.8995 185.448277 
L 239.644625 184.4734 
L 240.38975 181.755933 
L 241.134875 180.114206 
L 241.88 179.382731 
L 242.625125 177.263351 
L 243.37025 175.608589 
L 244.115375 175.102638 
L 244.8605 173.044631 
L 245.605625 171.341957 
L 246.35075 170.90946 
L 247.095875 170.329701 
L 247.841 168.008197 
L 248.586125 166.69152 
L 249.33125 166.379134 
L 250.8215 166.296229 
L 253.056875 162.583373 
L 253.802 161.91372 
L 255.29225 161.85131 
L 257.527625 161.761146 
L 258.27275 161.67484 
L 259.017875 160.872068 
L 259.763 159.373299 
L 260.508125 158.135048 
L 261.25325 157.571588 
L 261.998375 157.289431 
L 263.488625 157.283846 
L 264.23375 157.130954 
L 266.469125 153.863189 
L 267.21425 153.688704 
L 267.959375 152.986873 
L 270.939875 152.779854 
L 272.430125 152.771139 
L 273.17525 152.194886 
L 273.920375 150.46875 
L 274.6655 151.10307 
L 275.410625 151.083502 
L 276.15575 152.004506 
L 276.900875 152.094817 
L 277.646 151.313998 
L 278.391125 151.173271 
L 279.13625 151.338073 
L 279.881375 151.661133 
L 280.6265 151.615803 
L 281.371625 150.851422 
L 282.11675 150.293227 
L 282.861875 149.021214 
L 283.607 148.530506 
L 284.352125 148.249671 
L 289.568 148.244579 
L 290.313125 148.027187 
L 291.05825 147.670314 
L 291.803375 146.541853 
L 292.5485 146.106678 
L 293.293625 146.83251 
L 294.03875 146.763445 
L 294.783875 147.815995 
L 295.529 148.024112 
L 296.274125 147.735241 
L 297.01925 148.150892 
L 298.5095 145.210652 
L 299.254625 143.946184 
L 299.99975 143.737176 
L 302.98025 143.817092 
L 304.4705 144.171299 
L 305.215625 144.978578 
L 307.451 143.875838 
L 308.196125 143.733983 
L 308.94125 143.732064 
L 309.686375 143.587966 
L 310.4315 142.729956 
L 311.176625 141.470137 
L 311.92175 140.626504 
L 312.666875 140.252319 
L 313.412 140.004705 
L 314.157125 140.749651 
L 314.90225 141.157164 
L 315.647375 142.128706 
L 317.137625 143.388434 
L 317.88275 143.738709 
L 320.118125 143.583485 
L 320.86325 142.874002 
L 321.608375 141.906402 
L 322.3535 140.016952 
L 323.098625 139.24463 
L 326.079125 139.178409 
L 328.3145 138.153805 
L 329.059625 138.973137 
L 329.80475 138.832464 
L 330.549875 139.183805 
L 332.040125 139.253363 
L 340.2365 139.171911 
L 340.981625 138.291039 
L 341.72675 136.581186 
L 341.72675 136.581186 
" style="fill:none;stroke:#ff0000;stroke-linecap:square;stroke-width:1.5;"/>
   </g>
   <g id="line2d_17">
    <path clip-path="url(#p63adc4a046)" d="M 62.304875 271.114448 
L 69.011 271.00246 
L 77.207375 270.815589 
L 82.42325 270.684831 
L 89.129375 270.248816 
L 91.36475 269.865659 
L 92.855 270.257914 
L 94.34525 270.952434 
L 95.8355 271.211308 
L 97.32575 270.722937 
L 98.816 270.899824 
L 101.7965 271.940686 
L 102.541625 272.418854 
L 103.28675 273.71418 
L 104.031875 273.076225 
L 104.777 271.878963 
L 105.522125 271.117753 
L 109.24775 268.266139 
L 109.992875 268.392713 
L 110.738 268.328098 
L 111.483125 268.581163 
L 112.22825 269.004044 
L 113.7185 270.122413 
L 115.20875 271.792517 
L 115.953875 271.824512 
L 116.699 272.036208 
L 117.444125 271.650104 
L 118.18925 271.39127 
L 118.934375 271.468791 
L 119.6795 271.828578 
L 121.16975 270.962335 
L 122.66 268.872541 
L 124.15025 267.749515 
L 125.6405 267.880677 
L 128.621 270.072715 
L 129.366125 270.401008 
L 130.11125 270.902309 
L 131.6015 269.962258 
L 132.346625 269.327224 
L 133.836875 268.584063 
L 135.327125 268.137467 
L 136.817375 267.885864 
L 138.307625 267.829533 
L 139.797875 268.152741 
L 141.288125 268.761673 
L 142.03325 269.250555 
L 145.01375 266.27427 
L 146.504 266.418728 
L 147.99425 267.091787 
L 148.739375 266.517893 
L 150.229625 265.844257 
L 151.719875 265.40624 
L 152.465 265.318242 
L 153.210125 265.400111 
L 153.95525 265.622029 
L 154.700375 266.128508 
L 155.4455 266.814618 
L 156.93575 265.855476 
L 157.680875 264.835249 
L 158.426 264.216473 
L 159.91625 263.769938 
L 160.661375 263.399923 
L 162.151625 263.127322 
L 162.89675 263.156484 
L 163.641875 263.014342 
L 165.132125 263.283821 
L 165.87725 263.22429 
L 166.622375 262.203421 
L 167.3675 261.411135 
L 168.112625 261.042595 
L 168.85775 260.84551 
L 169.602875 260.493131 
L 170.348 260.414174 
L 171.093125 260.455138 
L 171.83825 260.77622 
L 173.3285 260.155303 
L 174.073625 259.38967 
L 175.563875 258.198147 
L 176.309 257.985027 
L 177.054125 258.047161 
L 177.79925 258.401866 
L 178.544375 257.75374 
L 179.2895 257.312523 
L 180.034625 256.490211 
L 180.77975 256.076542 
L 181.524875 255.994451 
L 182.27 256.244191 
L 183.015125 255.359637 
L 183.76025 254.728205 
L 184.505375 254.294873 
L 185.2505 254.506447 
L 185.995625 253.254139 
L 188.231 251.227954 
L 188.976125 250.064235 
L 189.72125 249.645091 
L 190.466375 248.061827 
L 191.2115 247.332987 
L 191.956625 245.366848 
L 192.70175 244.326211 
L 193.446875 242.32743 
L 194.192 241.14573 
L 194.937125 238.937932 
L 195.68225 237.213334 
L 196.427375 233.883922 
L 197.1725 231.454036 
L 197.917625 227.210365 
L 198.66275 223.965094 
L 201.64325 202.002499 
L 203.878625 180.613018 
L 205.368875 163.789596 
L 209.839625 110.817012 
L 210.58475 102.524573 
L 211.329875 97.732663 
L 212.075 90.026505 
L 212.820125 85.285298 
L 213.56525 77.602895 
L 214.310375 77.201569 
L 215.0555 74.163617 
L 215.800625 77.629876 
L 216.54575 77.10912 
L 217.290875 83.678825 
L 218.036 86.726998 
L 218.781125 97.93443 
L 219.52625 103.648802 
L 220.271375 114.545866 
L 221.0165 121.740272 
L 221.761625 134.92995 
L 222.50675 144.973724 
L 223.251875 158.852982 
L 223.997 169.852607 
L 225.48725 194.311819 
L 226.9775 214.540571 
L 228.46775 230.469793 
L 229.212875 235.85212 
L 229.958 242.103033 
L 230.703125 245.915433 
L 231.44825 251.101432 
L 232.193375 254.003099 
L 232.9385 258.2735 
L 233.683625 259.763313 
L 234.42875 262.483339 
L 235.173875 262.787317 
L 235.919 264.465348 
L 236.664125 264.64042 
L 237.40925 265.930522 
L 238.154375 265.769858 
L 238.8995 266.218555 
L 239.644625 266.000379 
L 240.38975 266.741408 
L 241.134875 266.189138 
L 241.88 266.730337 
L 242.625125 266.741595 
L 243.37025 266.992952 
L 244.115375 267.124767 
L 244.8605 267.886044 
L 245.605625 267.271614 
L 246.35075 267.258531 
L 247.095875 267.626105 
L 247.841 268.207788 
L 248.586125 267.310383 
L 249.33125 266.882638 
L 250.076375 266.862582 
L 250.8215 267.441986 
L 252.31175 268.177609 
L 253.056875 267.677016 
L 254.547125 266.952069 
L 255.29225 266.89547 
L 256.037375 267.047934 
L 256.7825 267.359779 
L 257.527625 267.836299 
L 259.017875 269.35431 
L 259.763 270.09525 
L 260.508125 269.712162 
L 262.7435 269.298652 
L 263.488625 269.614381 
L 264.23375 270.304832 
L 265.724 270.948045 
L 266.469125 270.46739 
L 267.21425 270.277435 
L 268.7045 269.649751 
L 270.19475 269.402232 
L 270.939875 269.454947 
L 271.685 269.628066 
L 272.430125 270.001455 
L 273.17525 270.617515 
L 274.6655 269.353464 
L 275.410625 269.195363 
L 276.15575 269.196173 
L 276.900875 269.85004 
L 277.646 270.292021 
L 278.391125 270.22908 
L 279.13625 270.298691 
L 279.881375 270.778649 
L 280.6265 271.509984 
L 282.11675 272.531031 
L 283.607 272.155942 
L 284.352125 271.795993 
L 285.09725 271.593713 
L 286.5875 271.535491 
L 288.07775 271.736588 
L 289.568 272.218768 
L 290.313125 272.527371 
L 291.05825 272.988471 
L 291.803375 272.742861 
L 292.5485 272.239728 
L 294.03875 271.910345 
L 294.783875 272.294088 
L 296.274125 273.572448 
L 297.01925 274.511258 
L 297.764375 275.178138 
L 298.5095 275.635014 
L 299.99975 274.334709 
L 300.744875 273.928596 
L 302.235125 273.478328 
L 302.98025 273.293743 
L 304.4705 273.16487 
L 305.215625 273.64887 
L 305.96075 274.283702 
L 308.94125 275.01277 
L 309.686375 275.460007 
L 310.4315 276.072723 
L 311.92175 275.39713 
L 313.412 273.782688 
L 314.90225 272.754659 
L 316.3925 272.938597 
L 319.373 275.478546 
L 320.118125 276.266596 
L 320.86325 277.221635 
L 322.3535 277.921889 
L 323.098625 277.048011 
L 323.84375 276.512005 
L 324.588875 276.192774 
L 325.334 276.020294 
L 326.82425 275.956063 
L 327.569375 275.675958 
L 328.3145 275.242575 
L 329.059625 275.085467 
L 330.549875 275.089928 
L 335.76575 275.853932 
L 338.001125 276.489449 
L 339.491375 277.183959 
L 340.2365 277.836411 
L 340.981625 278.246118 
L 341.72675 278.365852 
L 342.471875 277.719996 
L 343.962125 277.242769 
L 346.942625 276.869423 
L 357.374375 276.483046 
L 361.1 276.438276 
L 361.1 276.438276 
" style="fill:none;stroke:#000000;stroke-linecap:square;stroke-width:1.5;"/>
   </g>
   <g id="patch_3">
    <path d="M 63.05 279.2 
L 63.05 14.8 
" style="fill:none;stroke:#000000;stroke-linecap:square;stroke-linejoin:miter;stroke-width:0.8;"/>
   </g>
   <g id="patch_4">
    <path d="M 361.1 279.2 
L 361.1 14.8 
" style="fill:none;stroke:#000000;stroke-linecap:square;stroke-linejoin:miter;stroke-width:0.8;"/>
   </g>
   <g id="patch_5">
    <path d="M 63.05 279.2 
L 361.1 279.2 
" style="fill:none;stroke:#000000;stroke-linecap:square;stroke-linejoin:miter;stroke-width:0.8;"/>
   </g>
   <g id="patch_6">
    <path d="M 63.05 14.8 
L 361.1 14.8 
" style="fill:none;stroke:#000000;stroke-linecap:square;stroke-linejoin:miter;stroke-width:0.8;"/>
   </g>
  </g>
  <g id="axes_2">
   <g id="matplotlib.axis_3">
    <g id="ytick_6">
     <g id="line2d_18">
      <defs>
       <path d="M 0 0 
L 3.5 0 
" id="m9d56c979c5" style="stroke:#000000;stroke-width:0.8;"/>
      </defs>
      <g>
       <use style="stroke:#000000;stroke-width:0.8;" x="361.1" xlink:href="#m9d56c979c5" y="279.2"/>
      </g>
     </g>
     <g id="text_17">
      <!-- 0 -->
      <g transform="translate(368.1 282.999219)scale(0.1 -0.1)">
       <use xlink:href="#DejaVuSans-48"/>
      </g>
     </g>
    </g>
    <g id="ytick_7">
     <g id="line2d_19">
      <g>
       <use style="stroke:#000000;stroke-width:0.8;" x="361.1" xlink:href="#m9d56c979c5" y="246.901952"/>
      </g>
     </g>
     <g id="text_18">
      <!-- 2000 -->
      <g transform="translate(368.1 250.701171)scale(0.1 -0.1)">
       <use xlink:href="#DejaVuSans-50"/>
       <use x="63.623047" xlink:href="#DejaVuSans-48"/>
       <use x="127.246094" xlink:href="#DejaVuSans-48"/>
       <use x="190.869141" xlink:href="#DejaVuSans-48"/>
      </g>
     </g>
    </g>
    <g id="ytick_8">
     <g id="line2d_20">
      <g>
       <use style="stroke:#000000;stroke-width:0.8;" x="361.1" xlink:href="#m9d56c979c5" y="214.603904"/>
      </g>
     </g>
     <g id="text_19">
      <!-- 4000 -->
      <g transform="translate(368.1 218.403123)scale(0.1 -0.1)">
       <use xlink:href="#DejaVuSans-52"/>
       <use x="63.623047" xlink:href="#DejaVuSans-48"/>
       <use x="127.246094" xlink:href="#DejaVuSans-48"/>
       <use x="190.869141" xlink:href="#DejaVuSans-48"/>
      </g>
     </g>
    </g>
    <g id="ytick_9">
     <g id="line2d_21">
      <g>
       <use style="stroke:#000000;stroke-width:0.8;" x="361.1" xlink:href="#m9d56c979c5" y="182.305856"/>
      </g>
     </g>
     <g id="text_20">
      <!-- 6000 -->
      <defs>
       <path d="M 33.015625 40.375 
Q 26.375 40.375 22.484375 35.828125 
Q 18.609375 31.296875 18.609375 23.390625 
Q 18.609375 15.53125 22.484375 10.953125 
Q 26.375 6.390625 33.015625 6.390625 
Q 39.65625 6.390625 43.53125 10.953125 
Q 47.40625 15.53125 47.40625 23.390625 
Q 47.40625 31.296875 43.53125 35.828125 
Q 39.65625 40.375 33.015625 40.375 
z
M 52.59375 71.296875 
L 52.59375 62.3125 
Q 48.875 64.0625 45.09375 64.984375 
Q 41.3125 65.921875 37.59375 65.921875 
Q 27.828125 65.921875 22.671875 59.328125 
Q 17.53125 52.734375 16.796875 39.40625 
Q 19.671875 43.65625 24.015625 45.921875 
Q 28.375 48.1875 33.59375 48.1875 
Q 44.578125 48.1875 50.953125 41.515625 
Q 57.328125 34.859375 57.328125 23.390625 
Q 57.328125 12.15625 50.6875 5.359375 
Q 44.046875 -1.421875 33.015625 -1.421875 
Q 20.359375 -1.421875 13.671875 8.265625 
Q 6.984375 17.96875 6.984375 36.375 
Q 6.984375 53.65625 15.1875 63.9375 
Q 23.390625 74.21875 37.203125 74.21875 
Q 40.921875 74.21875 44.703125 73.484375 
Q 48.484375 72.75 52.59375 71.296875 
z
" id="DejaVuSans-54"/>
      </defs>
      <g transform="translate(368.1 186.105075)scale(0.1 -0.1)">
       <use xlink:href="#DejaVuSans-54"/>
       <use x="63.623047" xlink:href="#DejaVuSans-48"/>
       <use x="127.246094" xlink:href="#DejaVuSans-48"/>
       <use x="190.869141" xlink:href="#DejaVuSans-48"/>
      </g>
     </g>
    </g>
    <g id="ytick_10">
     <g id="line2d_22">
      <g>
       <use style="stroke:#000000;stroke-width:0.8;" x="361.1" xlink:href="#m9d56c979c5" y="150.007808"/>
      </g>
     </g>
     <g id="text_21">
      <!-- 8000 -->
      <defs>
       <path d="M 31.78125 34.625 
Q 24.75 34.625 20.71875 30.859375 
Q 16.703125 27.09375 16.703125 20.515625 
Q 16.703125 13.921875 20.71875 10.15625 
Q 24.75 6.390625 31.78125 6.390625 
Q 38.8125 6.390625 42.859375 10.171875 
Q 46.921875 13.96875 46.921875 20.515625 
Q 46.921875 27.09375 42.890625 30.859375 
Q 38.875 34.625 31.78125 34.625 
z
M 21.921875 38.8125 
Q 15.578125 40.375 12.03125 44.71875 
Q 8.5 49.078125 8.5 55.328125 
Q 8.5 64.0625 14.71875 69.140625 
Q 20.953125 74.21875 31.78125 74.21875 
Q 42.671875 74.21875 48.875 69.140625 
Q 55.078125 64.0625 55.078125 55.328125 
Q 55.078125 49.078125 51.53125 44.71875 
Q 48 40.375 41.703125 38.8125 
Q 48.828125 37.15625 52.796875 32.3125 
Q 56.78125 27.484375 56.78125 20.515625 
Q 56.78125 9.90625 50.3125 4.234375 
Q 43.84375 -1.421875 31.78125 -1.421875 
Q 19.734375 -1.421875 13.25 4.234375 
Q 6.78125 9.90625 6.78125 20.515625 
Q 6.78125 27.484375 10.78125 32.3125 
Q 14.796875 37.15625 21.921875 38.8125 
z
M 18.3125 54.390625 
Q 18.3125 48.734375 21.84375 45.5625 
Q 25.390625 42.390625 31.78125 42.390625 
Q 38.140625 42.390625 41.71875 45.5625 
Q 45.3125 48.734375 45.3125 54.390625 
Q 45.3125 60.0625 41.71875 63.234375 
Q 38.140625 66.40625 31.78125 66.40625 
Q 25.390625 66.40625 21.84375 63.234375 
Q 18.3125 60.0625 18.3125 54.390625 
z
" id="DejaVuSans-56"/>
      </defs>
      <g transform="translate(368.1 153.807027)scale(0.1 -0.1)">
       <use xlink:href="#DejaVuSans-56"/>
       <use x="63.623047" xlink:href="#DejaVuSans-48"/>
       <use x="127.246094" xlink:href="#DejaVuSans-48"/>
       <use x="190.869141" xlink:href="#DejaVuSans-48"/>
      </g>
     </g>
    </g>
    <g id="ytick_11">
     <g id="line2d_23">
      <g>
       <use style="stroke:#000000;stroke-width:0.8;" x="361.1" xlink:href="#m9d56c979c5" y="117.70976"/>
      </g>
     </g>
     <g id="text_22">
      <!-- 10000 -->
      <g transform="translate(368.1 121.508979)scale(0.1 -0.1)">
       <use xlink:href="#DejaVuSans-49"/>
       <use x="63.623047" xlink:href="#DejaVuSans-48"/>
       <use x="127.246094" xlink:href="#DejaVuSans-48"/>
       <use x="190.869141" xlink:href="#DejaVuSans-48"/>
       <use x="254.492188" xlink:href="#DejaVuSans-48"/>
      </g>
     </g>
    </g>
    <g id="ytick_12">
     <g id="line2d_24">
      <g>
       <use style="stroke:#000000;stroke-width:0.8;" x="361.1" xlink:href="#m9d56c979c5" y="85.411712"/>
      </g>
     </g>
     <g id="text_23">
      <!-- 12000 -->
      <g transform="translate(368.1 89.210931)scale(0.1 -0.1)">
       <use xlink:href="#DejaVuSans-49"/>
       <use x="63.623047" xlink:href="#DejaVuSans-50"/>
       <use x="127.246094" xlink:href="#DejaVuSans-48"/>
       <use x="190.869141" xlink:href="#DejaVuSans-48"/>
       <use x="254.492188" xlink:href="#DejaVuSans-48"/>
      </g>
     </g>
    </g>
    <g id="ytick_13">
     <g id="line2d_25">
      <g>
       <use style="stroke:#000000;stroke-width:0.8;" x="361.1" xlink:href="#m9d56c979c5" y="53.113664"/>
      </g>
     </g>
     <g id="text_24">
      <!-- 14000 -->
      <g transform="translate(368.1 56.912882)scale(0.1 -0.1)">
       <use xlink:href="#DejaVuSans-49"/>
       <use x="63.623047" xlink:href="#DejaVuSans-52"/>
       <use x="127.246094" xlink:href="#DejaVuSans-48"/>
       <use x="190.869141" xlink:href="#DejaVuSans-48"/>
       <use x="254.492188" xlink:href="#DejaVuSans-48"/>
      </g>
     </g>
    </g>
    <g id="ytick_14">
     <g id="line2d_26">
      <g>
       <use style="stroke:#000000;stroke-width:0.8;" x="361.1" xlink:href="#m9d56c979c5" y="20.815616"/>
      </g>
     </g>
     <g id="text_25">
      <!-- 16000 -->
      <g transform="translate(368.1 24.614834)scale(0.1 -0.1)">
       <use xlink:href="#DejaVuSans-49"/>
       <use x="63.623047" xlink:href="#DejaVuSans-54"/>
       <use x="127.246094" xlink:href="#DejaVuSans-48"/>
       <use x="190.869141" xlink:href="#DejaVuSans-48"/>
       <use x="254.492188" xlink:href="#DejaVuSans-48"/>
      </g>
     </g>
    </g>
    <g id="text_26">
     <!-- Attenuation coefficient (cm${}^{-1}$) -->
     <defs>
      <path d="M 34.1875 63.1875 
L 20.796875 26.90625 
L 47.609375 26.90625 
z
M 28.609375 72.90625 
L 39.796875 72.90625 
L 67.578125 0 
L 57.328125 0 
L 50.6875 18.703125 
L 17.828125 18.703125 
L 11.1875 0 
L 0.78125 0 
z
" id="DejaVuSans-65"/>
      <path d="M 30.609375 48.390625 
Q 23.390625 48.390625 19.1875 42.75 
Q 14.984375 37.109375 14.984375 27.296875 
Q 14.984375 17.484375 19.15625 11.84375 
Q 23.34375 6.203125 30.609375 6.203125 
Q 37.796875 6.203125 41.984375 11.859375 
Q 46.1875 17.53125 46.1875 27.296875 
Q 46.1875 37.015625 41.984375 42.703125 
Q 37.796875 48.390625 30.609375 48.390625 
z
M 30.609375 56 
Q 42.328125 56 49.015625 48.375 
Q 55.71875 40.765625 55.71875 27.296875 
Q 55.71875 13.875 49.015625 6.21875 
Q 42.328125 -1.421875 30.609375 -1.421875 
Q 18.84375 -1.421875 12.171875 6.21875 
Q 5.515625 13.875 5.515625 27.296875 
Q 5.515625 40.765625 12.171875 48.375 
Q 18.84375 56 30.609375 56 
z
" id="DejaVuSans-111"/>
     </defs>
     <g transform="translate(413.896875 237.72)rotate(-90)scale(0.12 -0.12)">
      <use transform="translate(0 0.684375)" xlink:href="#DejaVuSans-65"/>
      <use transform="translate(68.408203 0.684375)" xlink:href="#DejaVuSans-116"/>
      <use transform="translate(107.617188 0.684375)" xlink:href="#DejaVuSans-116"/>
      <use transform="translate(146.826172 0.684375)" xlink:href="#DejaVuSans-101"/>
      <use transform="translate(208.349609 0.684375)" xlink:href="#DejaVuSans-110"/>
      <use transform="translate(271.728516 0.684375)" xlink:href="#DejaVuSans-117"/>
      <use transform="translate(335.107422 0.684375)" xlink:href="#DejaVuSans-97"/>
      <use transform="translate(396.386719 0.684375)" xlink:href="#DejaVuSans-116"/>
      <use transform="translate(435.595703 0.684375)" xlink:href="#DejaVuSans-105"/>
      <use transform="translate(463.378906 0.684375)" xlink:href="#DejaVuSans-111"/>
      <use transform="translate(524.560547 0.684375)" xlink:href="#DejaVuSans-110"/>
      <use transform="translate(587.939453 0.684375)" xlink:href="#DejaVuSans-32"/>
      <use transform="translate(619.726562 0.684375)" xlink:href="#DejaVuSans-99"/>
      <use transform="translate(674.707031 0.684375)" xlink:href="#DejaVuSans-111"/>
      <use transform="translate(735.888672 0.684375)" xlink:href="#DejaVuSans-101"/>
      <use transform="translate(797.412109 0.684375)" xlink:href="#DejaVuSans-102"/>
      <use transform="translate(832.617188 0.684375)" xlink:href="#DejaVuSans-102"/>
      <use transform="translate(867.822266 0.684375)" xlink:href="#DejaVuSans-105"/>
      <use transform="translate(895.605469 0.684375)" xlink:href="#DejaVuSans-99"/>
      <use transform="translate(950.585938 0.684375)" xlink:href="#DejaVuSans-105"/>
      <use transform="translate(978.369141 0.684375)" xlink:href="#DejaVuSans-101"/>
      <use transform="translate(1039.892578 0.684375)" xlink:href="#DejaVuSans-110"/>
      <use transform="translate(1103.271484 0.684375)" xlink:href="#DejaVuSans-116"/>
      <use transform="translate(1142.480469 0.684375)" xlink:href="#DejaVuSans-32"/>
      <use transform="translate(1174.267578 0.684375)" xlink:href="#DejaVuSans-40"/>
      <use transform="translate(1213.28125 0.684375)" xlink:href="#DejaVuSans-99"/>
      <use transform="translate(1268.261719 0.684375)" xlink:href="#DejaVuSans-109"/>
      <use transform="translate(1366.630859 38.965625)scale(0.7)" xlink:href="#DejaVuSans-8722"/>
      <use transform="translate(1425.283203 38.965625)scale(0.7)" xlink:href="#DejaVuSans-49"/>
      <use transform="translate(1472.553711 0.684375)" xlink:href="#DejaVuSans-41"/>
     </g>
    </g>
   </g>
   <g id="line2d_27">
    <path clip-path="url(#p63adc4a046)" d="M 62.304875 271.115296 
L 69.011 271.003282 
L 77.207375 270.816382 
L 82.42325 270.685607 
L 89.129375 270.24959 
L 91.36475 269.866452 
L 92.855 270.258665 
L 94.34525 270.953117 
L 95.8355 271.211962 
L 97.32575 270.723622 
L 98.816 270.900486 
L 101.7965 271.94125 
L 102.541625 272.419378 
L 103.28675 273.714601 
L 104.031875 273.076692 
L 104.777 271.879517 
L 105.522125 271.118361 
L 109.24775 268.266933 
L 109.992875 268.393493 
L 110.738 268.328877 
L 111.483125 268.581918 
L 112.22825 269.004764 
L 113.7185 270.123044 
L 115.20875 271.793025 
L 115.953875 271.825014 
L 116.699 272.036692 
L 117.444125 271.65061 
L 118.18925 271.391789 
L 118.934375 271.469302 
L 119.6795 271.829061 
L 121.16975 270.962867 
L 122.66 268.873197 
L 124.15025 267.75023 
L 125.6405 267.881372 
L 128.621 270.073256 
L 129.366125 270.401526 
L 130.11125 270.902793 
L 131.6015 269.962788 
L 132.346625 269.327784 
L 133.836875 268.584655 
L 135.327125 268.138072 
L 136.817375 267.886472 
L 138.307625 267.830132 
L 139.797875 268.153312 
L 141.288125 268.762202 
L 142.03325 269.251054 
L 145.01375 266.274891 
L 146.504 266.41933 
L 147.99425 267.092344 
L 148.739375 266.51847 
L 150.229625 265.844851 
L 151.719875 265.40684 
L 152.465 265.318838 
L 153.210125 265.400698 
L 153.95525 265.622599 
L 154.700375 266.12905 
L 155.4455 266.815125 
L 156.93575 265.856008 
L 157.680875 264.835815 
L 158.426 264.217055 
L 159.91625 263.770523 
L 160.661375 263.400513 
L 162.151625 263.127906 
L 162.89675 263.157059 
L 163.641875 263.014913 
L 165.132125 263.284367 
L 165.87725 263.224829 
L 166.622375 262.203986 
L 167.3675 261.411718 
L 168.112625 261.04318 
L 168.85775 260.846092 
L 169.602875 260.493715 
L 170.348 260.414751 
L 171.093125 260.455704 
L 171.83825 260.776767 
L 173.3285 260.155849 
L 174.073625 259.390228 
L 175.563875 258.198717 
L 176.309 257.985592 
L 177.054125 258.047713 
L 177.79925 258.402398 
L 178.544375 257.754278 
L 179.2895 257.31306 
L 180.034625 256.490758 
L 180.77975 256.077086 
L 181.524875 255.994985 
L 182.27 256.244708 
L 183.015125 255.360161 
L 183.76025 254.728731 
L 184.505375 254.295395 
L 185.2505 254.506953 
L 185.995625 253.254657 
L 188.231 251.228469 
L 188.976125 250.064757 
L 189.72125 249.645605 
L 190.466375 248.062352 
L 191.2115 247.333509 
L 191.956625 245.367385 
L 192.70175 244.326746 
L 193.446875 242.327977 
L 194.192 241.146276 
L 194.937125 238.938488 
L 195.68225 237.213893 
L 196.427375 233.884501 
L 197.1725 231.454622 
L 197.917625 227.210976 
L 198.66275 223.965716 
L 201.64325 202.00321 
L 203.878625 180.613775 
L 205.368875 163.790363 
L 209.839625 110.817615 
L 210.58475 102.525116 
L 211.329875 97.733127 
L 212.075 90.026892 
L 212.820125 85.285596 
L 213.56525 77.603102 
L 214.310375 77.201673 
L 215.0555 74.163617 
L 215.800625 77.629773 
L 216.54575 77.108913 
L 217.290875 83.678525 
L 218.036 86.726604 
L 218.781125 97.933967 
L 219.52625 103.648264 
L 220.271375 114.545276 
L 221.0165 121.739627 
L 221.761625 134.929286 
L 222.50675 144.973038 
L 223.251875 158.852304 
L 223.997 169.851936 
L 225.48725 194.31121 
L 226.9775 214.540042 
L 228.46775 230.469344 
L 229.212875 235.851699 
L 229.958 242.102654 
L 230.703125 245.915075 
L 231.44825 251.101116 
L 232.193375 254.002803 
L 232.9385 258.273243 
L 233.683625 259.763065 
L 234.42875 262.483116 
L 235.173875 262.78709 
L 235.919 264.465137 
L 236.664125 264.640204 
L 237.40925 265.930318 
L 238.154375 265.769645 
L 238.8995 266.218343 
L 239.644625 266.000156 
L 240.38975 266.741191 
L 241.134875 266.188905 
L 241.88 266.730107 
L 242.625125 266.741359 
L 243.37025 266.992714 
L 244.115375 267.124526 
L 244.8605 267.885812 
L 245.605625 267.271364 
L 246.35075 267.258274 
L 247.095875 267.62585 
L 247.841 268.207541 
L 248.586125 267.310109 
L 249.33125 266.882348 
L 250.076375 266.862285 
L 250.8215 267.441698 
L 252.31175 268.177327 
L 253.056875 267.676715 
L 254.547125 266.951737 
L 255.29225 266.89513 
L 256.037375 267.047592 
L 256.7825 267.35944 
L 257.527625 267.835967 
L 259.017875 269.354013 
L 259.763 270.094971 
L 260.508125 269.711866 
L 262.7435 269.298328 
L 263.488625 269.614062 
L 264.23375 270.304531 
L 265.724 270.947758 
L 266.469125 270.467082 
L 267.21425 270.277116 
L 268.7045 269.6494 
L 270.19475 269.401861 
L 270.939875 269.454573 
L 271.685 269.627693 
L 272.430125 270.001092 
L 273.17525 270.617173 
L 274.6655 269.353061 
L 275.410625 269.194948 
L 276.15575 269.195753 
L 276.900875 269.849643 
L 277.646 270.291638 
L 278.391125 270.228689 
L 279.13625 270.298299 
L 279.881375 270.778274 
L 280.6265 271.509638 
L 282.11675 272.530724 
L 283.607 272.15561 
L 284.352125 271.79564 
L 285.09725 271.593347 
L 286.5875 271.535114 
L 288.07775 271.736214 
L 289.568 272.218411 
L 290.313125 272.527026 
L 291.05825 272.988147 
L 291.803375 272.742521 
L 292.5485 272.239357 
L 294.03875 271.90995 
L 294.783875 272.29371 
L 296.274125 273.572134 
L 297.01925 274.510994 
L 297.764375 275.17791 
L 298.5095 275.634809 
L 299.99975 274.334425 
L 300.744875 273.928286 
L 302.235125 273.477985 
L 302.98025 273.293387 
L 304.4705 273.164499 
L 305.215625 273.648527 
L 305.96075 274.283395 
L 308.94125 275.0125 
L 309.686375 275.459764 
L 310.4315 276.072519 
L 311.92175 275.396877 
L 313.412 273.782322 
L 314.90225 272.754217 
L 316.3925 272.938161 
L 319.373 275.478279 
L 320.118125 276.266385 
L 320.86325 277.221491 
L 322.3535 277.921795 
L 323.098625 277.047852 
L 323.84375 276.511805 
L 324.588875 276.192548 
L 325.334 276.020053 
L 326.82425 275.955814 
L 327.569375 275.675686 
L 328.3145 275.242268 
L 329.059625 275.085145 
L 330.549875 275.089602 
L 335.76575 275.853655 
L 338.001125 276.48922 
L 339.491375 277.183786 
L 340.2365 277.836294 
L 340.981625 278.246036 
L 341.72675 278.36578 
L 342.471875 277.719867 
L 343.962125 277.242596 
L 346.942625 276.869212 
L 357.374375 276.48278 
L 361.1 276.437999 
L 361.1 276.437999 
" style="fill:none;stroke:#000000;stroke-linecap:square;stroke-width:1.5;"/>
   </g>
   <g id="patch_7">
    <path d="M 63.05 279.2 
L 63.05 14.8 
" style="fill:none;stroke:#000000;stroke-linecap:square;stroke-linejoin:miter;stroke-width:0.8;"/>
   </g>
   <g id="patch_8">
    <path d="M 361.1 279.2 
L 361.1 14.8 
" style="fill:none;stroke:#000000;stroke-linecap:square;stroke-linejoin:miter;stroke-width:0.8;"/>
   </g>
   <g id="patch_9">
    <path d="M 63.05 279.2 
L 361.1 279.2 
" style="fill:none;stroke:#000000;stroke-linecap:square;stroke-linejoin:miter;stroke-width:0.8;"/>
   </g>
   <g id="patch_10">
    <path d="M 63.05 14.8 
L 361.1 14.8 
" style="fill:none;stroke:#000000;stroke-linecap:square;stroke-linejoin:miter;stroke-width:0.8;"/>
   </g>
  </g>
 </g>
 <defs>
  <clipPath id="p63adc4a046">
   <rect height="264.4" width="298.05" x="63.05" y="14.8"/>
  </clipPath>
 </defs>
</svg>
